<svg xmlns="http://www.w3.org/2000/svg" width="340" height="340" fill="none" viewBox="0 0 340 340">
    <path fill="#F9F9F9" d="M0 0h340v340H0z"/>
    <path fill="#C4C4C4" fill-opacity=".01" d="M134 134h72v72h-72z"/>
    <path fill="#979797" fill-rule="evenodd" d="M193.363 193.586h-46.726a6.634 6.634 0 0 1-6.637-6.64v-28.632a6.635 6.635 0 0 1 6.637-6.641h6.67v-2.737a2.94 2.94 0 0 1 2.935-2.936h27.516a2.94 2.94 0 0 1 2.935 2.936v2.737h6.67a6.635 6.635 0 0 1 6.637 6.641v28.632c0 3.637-2.968 6.64-6.637 6.64zm-46.726-38.643a3.346 3.346 0 0 0-3.335 3.337v28.632a3.346 3.346 0 0 0 3.335 3.337h46.726a3.346 3.346 0 0 0 3.336-3.337V158.28a3.346 3.346 0 0 0-3.336-3.337h-9.972v-5.673h-26.782v5.673h-9.972zm22.913 32.169c-7.738 0-14.008-6.307-14.008-14.015 0-7.709 6.304-14.016 14.008-14.016 7.737 0 14.008 6.307 14.008 14.016 0 7.708-6.271 14.015-14.008 14.015zm0-24.728c-5.904 0-10.706 4.806-10.706 10.712 0 5.907 4.802 10.712 10.706 10.712 5.903 0 10.706-4.805 10.706-10.712 0-5.906-4.803-10.712-10.706-10.712zm16.917 1.116h2.066c.806 0 1.467-.869 1.467-1.956v-1.114c0-1.06-.661-1.93-1.467-1.93h-2.066c-.806 0-1.467.87-1.467 1.93v1.141c0 1.06.661 1.929 1.467 1.929z" clip-rule="evenodd"/>
</svg>
