<svg xmlns="http://www.w3.org/2000/svg" width="24" height="24" fill="none" viewBox="0 0 24 24">
    <path fill="#D8D8D8" fill-opacity=".01" d="M0 0h24v24H0z"/>
    <!-- <path stroke="#000" d="M0 0h24v24H0z"/> -->
    <path fill="#4A4A4A" d="M2.233 1A2.24 2.24 0 0 0 0 3.233v11.162a2.24 2.24 0 0 0 2.233 2.233h1.892l-.506 4.962a.558.558 0 0 0 .942.454l5.433-5.416h2.564v.855c0 .91.755 1.657 1.666 1.657h4.195l2.956 2.904a.558.558 0 0 0 .942-.497l-.427-2.407h.444A1.67 1.67 0 0 0 24 17.483v-5.338a1.67 1.67 0 0 0-1.666-1.657h-1.683V3.233A2.24 2.24 0 0 0 18.42 1H2.233zm0 1.116h16.186c.628 0 1.116.488 1.116 1.117v11.162c0 .628-.488 1.117-1.116 1.117H9.767a.559.559 0 0 0-.392.157l-4.491 4.473.418-4.02a.558.558 0 0 0-.558-.61H2.233a1.102 1.102 0 0 1-1.117-1.117V3.233c0-.629.488-1.117 1.117-1.117zm18.418 9.489h1.683c.315 0 .55.236.55.54v5.338c0 .305-.235.54-.55.54h-1.107a.558.558 0 0 0-.55.654l.236 1.352-1.875-1.849a.558.558 0 0 0-.393-.157h-4.421a.534.534 0 0 1-.55-.54v-.855h4.745a2.24 2.24 0 0 0 2.232-2.233v-2.79z"/>
</svg>
