<svg xmlns="http://www.w3.org/2000/svg" width="24" height="24" fill="none" viewBox="0 0 24 24">
    <path fill="#fff" fill-rule="evenodd" d="M24 0H0v24h24V0z" clip-rule="evenodd" opacity=".01"/>
    <path fill="#4A4A4A" fill-rule="evenodd" d="M20.645 10H23.5a.5.5 0 0 1 .5.5v3a.5.5 0 0 1-.5.5h-2.855c-.2.791-.456 1.668-.778 2.331l2.032 2.034a.5.5 0 0 1 0 .707L19.071 21.9a.5.5 0 0 1-.707 0l-2.034-2.033c-.662.323-1.54.578-2.33.778V23.5a.5.5 0 0 1-.5.5h-3a.5.5 0 0 1-.5-.5v-2.855c-.791-.2-1.668-.456-2.332-.779L5.636 21.9a.515.515 0 0 1-.707 0L2.1 19.072a.498.498 0 0 1 0-.707l2.033-2.034c-.323-.663-.579-1.54-.779-2.331H.5a.5.5 0 0 1-.5-.5v-3a.5.5 0 0 1 .5-.5h2.854c.2-.79.456-1.668.779-2.331L2.1 5.636a.5.5 0 0 1 0-.707l2.828-2.828a.5.5 0 0 1 .708 0l2.032 2.032C8.334 3.81 9.21 3.554 10 3.355V.5a.5.5 0 0 1 .5-.5h3a.5.5 0 0 1 .5.5v2.855c.789.199 1.665.454 2.33.778L18.364 2.1a.5.5 0 0 1 .707 0l2.829 2.828a.5.5 0 0 1 0 .708l-2.032 2.032c.323.665.578 1.542.777 2.332zm-.391 3H23v-2h-2.747a.5.5 0 0 1-.486-.383c-.134-.557-.49-2.036-.944-2.779a.5.5 0 0 1 .073-.614l1.943-1.942-2.122-2.121-1.943 1.943a.5.5 0 0 1-.614.073c-.667-.406-1.905-.733-2.777-.943A.5.5 0 0 1 13 3.747V1h-2v2.747a.5.5 0 0 1-.383.486l-.01.002c-.563.137-2.03.491-2.767.941a.5.5 0 0 1-.615-.073L5.282 3.161 3.16 5.28l1.943 1.944a.5.5 0 0 1 .073.615c-.45.735-.808 2.21-.944 2.772l-.002.005a.498.498 0 0 1-.485.383H1v2h2.745a.5.5 0 0 1 .486.383l.003.008c.137.564.494 2.035.943 2.77a.5.5 0 0 1-.073.614L3.16 18.718l2.122 2.121 1.942-1.944a.5.5 0 0 1 .615-.072c.739.451 2.22.81 2.779.945a.5.5 0 0 1 .382.486V23h2v-2.746a.5.5 0 0 1 .383-.486l.01-.002c.564-.138 2.033-.495 2.767-.943a.5.5 0 0 1 .614.073l1.944 1.942 2.122-2.12-1.943-1.944a.501.501 0 0 1-.073-.614c.449-.736.807-2.211.943-2.773l.002-.005a.5.5 0 0 1 .485-.382zM7 12c0-2.757 2.243-5 5-5s5 2.243 5 5-2.243 5-5 5-5-2.243-5-5zm1 0c0 2.206 1.794 4 4 4s4-1.794 4-4c0-2.205-1.794-4-4-4s-4 1.795-4 4z" clip-rule="evenodd"/>
</svg>
