<svg xmlns="http://www.w3.org/2000/svg" width="48" height="48" fill="none" viewBox="0 0 48 48">
    <g opacity=".48">
        <path fill="#fff" d="M0 0h48v48H0z"/>
        <!-- <path stroke="#D8D8D8" d="M0 0h48v48H0z"/> -->
    </g>
    <path fill="#fff" fill-rule="evenodd" d="M40 8H8v32h32V8z" clip-rule="evenodd" opacity=".01"/>
    <path fill="#054AF0" d="M30.667 20h-.5.5zm0 9.333v.5a.5.5 0 0 0 .5-.5h-.5zm-13.334 0h-.5a.5.5 0 0 0 .5.5v-.5zM30.167 20v9.333h1V20h-1zm.5 8.833H17.333v1h13.334v-1zm-12.834.5V20h-1v9.333h1zM24 12.833A7.167 7.167 0 0 0 16.833 20h1A6.167 6.167 0 0 1 24 13.833v-1zM31.167 20A7.167 7.167 0 0 0 24 12.833v1A6.167 6.167 0 0 1 30.167 20h1z"/>
    <path fill="#054AF0" fill-rule="evenodd" d="M21.333 32a2.667 2.667 0 1 0 5.334 0h-5.334z" clip-rule="evenodd"/>
    <path stroke="#054AF0" stroke-linecap="round" stroke-linejoin="round" d="M16 29.333h16V32H16z"/>
    <circle cx="34" cy="14" r="10" fill="#D0021B"/>
    <path fill="#fff" d="M28.22 12.952c0 .355.095.628.287.82.192.192.459.288.8.288.184 0 .347-.03.488-.088a1.1 1.1 0 0 0 .356-.24c.099-.101.173-.217.224-.348.05-.133.076-.272.076-.416 0-.173-.028-.33-.084-.468a.964.964 0 0 0-.58-.58 1.187 1.187 0 0 0-.444-.08c-.168 0-.321.028-.46.084a1.006 1.006 0 0 0-.584.58c-.053.136-.08.285-.08.448zm1.575 1.776c.104-.136.201-.27.292-.4-.144.11-.305.192-.484.248a1.85 1.85 0 0 1-1.172-.024 1.539 1.539 0 0 1-.512-.316 1.57 1.57 0 0 1-.352-.52 1.783 1.783 0 0 1-.132-.708c0-.25.047-.487.14-.708.093-.221.224-.413.392-.576a1.84 1.84 0 0 1 .608-.388c.237-.096.497-.144.78-.144.28 0 .533.045.76.136a1.64 1.64 0 0 1 .956.972 2.325 2.325 0 0 1 .084 1.236c-.03.152-.073.3-.132.444a3.01 3.01 0 0 1-.208.428c-.08.139-.172.281-.276.428l-1.38 1.98a.414.414 0 0 1-.164.132.53.53 0 0 1-.24.052h-.716l1.756-2.272zm3.065-1.776c0 .355.096.628.288.82.192.192.458.288.8.288.184 0 .346-.03.488-.088a1.1 1.1 0 0 0 .356-.24c.098-.101.173-.217.224-.348a1.16 1.16 0 0 0 .076-.416c0-.173-.028-.33-.084-.468a.962.962 0 0 0-.58-.58 1.186 1.186 0 0 0-.444-.08c-.168 0-.322.028-.46.084a1.007 1.007 0 0 0-.584.58c-.054.136-.08.285-.08.448zm1.576 1.776c.104-.136.201-.27.292-.4a1.57 1.57 0 0 1-.484.248 1.85 1.85 0 0 1-1.172-.024 1.539 1.539 0 0 1-.512-.316 1.57 1.57 0 0 1-.352-.52 1.783 1.783 0 0 1-.132-.708c0-.25.046-.487.14-.708.093-.221.224-.413.392-.576a1.84 1.84 0 0 1 .608-.388c.237-.096.497-.144.78-.144.28 0 .533.045.76.136a1.64 1.64 0 0 1 .956.972 2.325 2.325 0 0 1 .084 1.236c-.03.152-.074.3-.132.444a3 3 0 0 1-.208.428c-.08.139-.172.281-.276.428l-1.38 1.98a.413.413 0 0 1-.164.132.53.53 0 0 1-.24.052h-.716l1.756-2.272zm6.132-.116h-1.612v1.7h-.636v-1.7h-1.604v-.592h1.604v-1.692h.636v1.692h1.612v.592z"/>
</svg>
